module pion

go 1.22

require (
	github.com/deepch/vdk v0.0.27
	github.com/gorilla/websocket v1.5.1
	github.com/pion/randutil v0.1.0
	github.com/pion/webrtc/v4 v4.0.0-beta.19
)

require (
	github.com/google/uuid v1.6.0 // indirect
	github.com/pion/datachannel v1.5.6 // indirect
	github.com/pion/dtls/v2 v2.2.10 // indirect
	github.com/pion/ice/v3 v3.0.7 // indirect
	github.com/pion/interceptor v0.1.29 // indirect
	github.com/pion/logging v0.2.2 // indirect
	github.com/pion/mdns/v2 v2.0.7 // indirect
	github.com/pion/rtcp v1.2.14 // indirect
	github.com/pion/rtp v1.8.6 // indirect
	github.com/pion/sctp v1.8.16 // indirect
	github.com/pion/sdp/v3 v3.0.9 // indirect
	github.com/pion/srtp/v3 v3.0.1 // indirect
	github.com/pion/stun/v2 v2.0.0 // indirect
	github.com/pion/transport/v2 v2.2.4 // indirect
	github.com/pion/transport/v3 v3.0.2 // indirect
	github.com/pion/turn/v3 v3.0.3 // indirect
	golang.org/x/crypto v0.22.0 // indirect
	golang.org/x/net v0.24.0 // indirect
	golang.org/x/sys v0.19.0 // indirect
)
